<svg width="200" height="300" viewBox="0 0 200 300" fill="none" xmlns="http://www.w3.org/2000/svg">
<g filter="url(#filter0_i_33_108)">
<rect width="200" height="300" rx="10" fill="url(#paint0_linear_33_108)"/>
</g>
<rect x="3" y="3" width="194" height="294" rx="7" stroke="#FED4FF" stroke-width="6"/>
<g style="mix-blend-mode:color-burn">
<ellipse cx="100" cy="150.5" rx="57" ry="91.5" fill="#BCBCBC"/>
</g>
<g style="mix-blend-mode:multiply">
<ellipse cx="99.5" cy="150.5" rx="47.5" ry="80.5" fill="#BCBCBC"/>
</g>
<g style="mix-blend-mode:soft-light">
<ellipse cx="100" cy="150.5" rx="38" ry="69.5" fill="#BCBCBC"/>
</g>
<defs>
<filter id="filter0_i_33_108" x="0" y="0" width="200" height="300" filterUnits="userSpaceOnUse" color-interpolation-filters="sRGB">
<feFlood flood-opacity="0" result="BackgroundImageFix"/>
<feBlend mode="normal" in="SourceGraphic" in2="BackgroundImageFix" result="shape"/>
<feColorMatrix in="SourceAlpha" type="matrix" values="0 0 0 0 0 0 0 0 0 0 0 0 0 0 0 0 0 0 127 0" result="hardAlpha"/>
<feMorphology radius="11" operator="erode" in="SourceAlpha" result="effect1_innerShadow_33_108"/>
<feOffset/>
<feComposite in2="hardAlpha" operator="arithmetic" k2="-1" k3="1"/>
<feColorMatrix type="matrix" values="0 0 0 0 0 0 0 0 0 0 0 0 0 0 0 0 0 0 0.25 0"/>
<feBlend mode="normal" in2="shape" result="effect1_innerShadow_33_108"/>
</filter>
<linearGradient id="paint0_linear_33_108" x1="100" y1="0" x2="100" y2="300" gradientUnits="userSpaceOnUse">
<stop offset="0.176869" stop-color="#97B7DC"/>
<stop offset="1" stop-color="#7842AF"/>
</linearGradient>
</defs>
</svg>
